EESchema Schematic File Version 2
LIBS:power
LIBS:device
LIBS:transistors
LIBS:conn
LIBS:linear
LIBS:regul
LIBS:74xx
LIBS:cmos4000
LIBS:adc-dac
LIBS:memory
LIBS:xilinx
LIBS:microcontrollers
LIBS:dsp
LIBS:microchip
LIBS:analog_switches
LIBS:motorola
LIBS:texas
LIBS:intel
LIBS:audio
LIBS:interface
LIBS:digital-audio
LIBS:philips
LIBS:display
LIBS:cypress
LIBS:siliconi
LIBS:opto
LIBS:atmel
LIBS:contrib
LIBS:valves
LIBS:stm32
LIBS:f3osd
LIBS:F3OSD-cache
EELAYER 25 0
EELAYER END
$Descr A3 16535 11693
encoding utf-8
Sheet 3 4
Title ""
Date ""
Rev ""
Comp ""
Comment1 ""
Comment2 ""
Comment3 ""
Comment4 ""
$EndDescr
$Comp
L STM32F303RETx U2
U 1 1 589CD17F
P 8350 5100
F 0 "U2" H 3250 7025 50  0000 L BNN
F 1 "STM32F303RETx" H 13450 7025 50  0000 R BNN
F 2 "Housings_QFP:LQFP-64_10x10mm_Pitch0.5mm" H 13450 6975 50  0001 R TNN
F 3 "" H 8350 5100 50  0000 C CNN
	1    8350 5100
	1    0    0    -1  
$EndComp
Text HLabel 8050 2900 0    60   Input ~ 0
VCC-3.3
$Comp
L GND #PWR08
U 1 1 589E1A0B
P 8350 7300
F 0 "#PWR08" H 8350 7050 50  0001 C CNN
F 1 "GND" H 8350 7150 50  0000 C CNN
F 2 "" H 8350 7300 50  0000 C CNN
F 3 "" H 8350 7300 50  0000 C CNN
	1    8350 7300
	1    0    0    -1  
$EndComp
NoConn ~ 3150 5000
NoConn ~ 3150 5300
NoConn ~ 3150 5400
NoConn ~ 3150 5500
NoConn ~ 3150 5600
NoConn ~ 3150 5700
NoConn ~ 3150 5800
NoConn ~ 3150 5900
NoConn ~ 3150 6000
NoConn ~ 3150 6100
NoConn ~ 3150 6200
NoConn ~ 3150 6300
NoConn ~ 3150 6500
NoConn ~ 3150 6600
NoConn ~ 3150 6700
NoConn ~ 13550 3700
NoConn ~ 13550 3800
NoConn ~ 13550 4300
NoConn ~ 13550 4400
NoConn ~ 13550 4500
NoConn ~ 13550 4600
NoConn ~ 13550 4700
NoConn ~ 13550 5200
NoConn ~ 13550 5300
NoConn ~ 13550 5400
NoConn ~ 13550 5700
NoConn ~ 13550 5800
NoConn ~ 13550 5900
NoConn ~ 13550 6000
NoConn ~ 13550 6100
NoConn ~ 13550 6200
NoConn ~ 13550 6300
NoConn ~ 13550 6400
NoConn ~ 13550 6500
NoConn ~ 13550 6600
Text Label 2900 4000 2    60   ~ 0
VCC
Text Label 8700 2900 0    60   ~ 0
VCC
$Comp
L R R1
U 1 1 589E3615
P 2800 3700
F 0 "R1" V 2880 3700 50  0000 C CNN
F 1 "10K" V 2800 3700 50  0000 C CNN
F 2 "Resistors_SMD:R_0603" V 2730 3700 50  0001 C CNN
F 3 "" H 2800 3700 50  0000 C CNN
	1    2800 3700
	0    1    1    0   
$EndComp
$Comp
L GND #PWR09
U 1 1 589E36CD
P 2500 3750
F 0 "#PWR09" H 2500 3500 50  0001 C CNN
F 1 "GND" H 2500 3600 50  0000 C CNN
F 2 "" H 2500 3750 50  0000 C CNN
F 3 "" H 2500 3750 50  0000 C CNN
	1    2500 3750
	1    0    0    -1  
$EndComp
$Comp
L C_Small C17
U 1 1 589E385F
P 2800 3500
F 0 "C17" H 2810 3570 50  0000 L CNN
F 1 "100nF" H 2810 3420 50  0000 L CNN
F 2 "Capacitors_SMD:C_0603_HandSoldering" H 2800 3500 50  0001 C CNN
F 3 "" H 2800 3500 50  0000 C CNN
	1    2800 3500
	0    -1   -1   0   
$EndComp
Text Label 3250 2950 0    60   ~ 0
RESET
$Comp
L C_Small C15
U 1 1 589E470E
P 2300 4650
F 0 "C15" V 2350 4700 50  0000 L CNN
F 1 "20pF" V 2200 4500 50  0000 L CNN
F 2 "Capacitors_SMD:C_0603_HandSoldering" H 2300 4650 50  0001 C CNN
F 3 "" H 2300 4650 50  0000 C CNN
	1    2300 4650
	0    1    1    0   
$EndComp
$Comp
L C_Small C16
U 1 1 589E47D0
P 2300 4850
F 0 "C16" V 2350 4900 50  0000 L CNN
F 1 "20pF" V 2400 4700 50  0000 L CNN
F 2 "Capacitors_SMD:C_0603_HandSoldering" H 2300 4850 50  0001 C CNN
F 3 "" H 2300 4850 50  0000 C CNN
	1    2300 4850
	0    1    1    0   
$EndComp
$Comp
L Crystal_Small Y1
U 1 1 589E4A26
P 2700 4750
F 0 "Y1" V 2700 4600 50  0000 C CNN
F 1 "8MHz" V 2700 4950 50  0000 C CNN
F 2 "Crystals:Crystal_SMD_5032_4Pads" H 2700 4750 50  0001 C CNN
F 3 "" H 2700 4750 50  0000 C CNN
	1    2700 4750
	0    1    1    0   
$EndComp
$Comp
L GND #PWR010
U 1 1 589E4C32
P 1950 4650
F 0 "#PWR010" H 1950 4400 50  0001 C CNN
F 1 "GND" H 1950 4500 50  0000 C CNN
F 2 "" H 1950 4650 50  0000 C CNN
F 3 "" H 1950 4650 50  0000 C CNN
	1    1950 4650
	0    1    1    0   
$EndComp
$Comp
L GND #PWR011
U 1 1 589E4C5B
P 1950 4850
F 0 "#PWR011" H 1950 4600 50  0001 C CNN
F 1 "GND" H 1950 4700 50  0000 C CNN
F 2 "" H 1950 4850 50  0000 C CNN
F 3 "" H 1950 4850 50  0000 C CNN
	1    1950 4850
	0    1    1    0   
$EndComp
$Comp
L R_Small R2
U 1 1 589E4CDF
P 2900 4850
F 0 "R2" V 3000 4900 50  0000 L CNN
F 1 "390" V 3000 4700 50  0000 L CNN
F 2 "Resistors_SMD:R_0603" H 2900 4850 50  0001 C CNN
F 3 "" H 2900 4850 50  0000 C CNN
	1    2900 4850
	0    1    1    0   
$EndComp
Text Label 13750 4800 0    60   ~ 0
TMS/SWDIO
Text Label 13750 4900 0    60   ~ 0
TCK/SWCLK
Text Label 13750 5000 0    60   ~ 0
TDI
Text Label 13750 5500 0    60   ~ 0
TDO/SWO
Text Label 13750 5600 0    60   ~ 0
TRST
$Comp
L CONN_01X08 P2
U 1 1 589E56A0
P 14650 8500
F 0 "P2" H 14650 8950 50  0000 C CNN
F 1 "JTAG" V 14750 8500 50  0000 C CNN
F 2 "Pin_Headers:Pin_Header_Straight_1x08" H 14650 8500 50  0001 C CNN
F 3 "" H 14650 8500 50  0000 C CNN
	1    14650 8500
	1    0    0    -1  
$EndComp
$Comp
L GND #PWR012
U 1 1 589E57C5
P 14100 8150
F 0 "#PWR012" H 14100 7900 50  0001 C CNN
F 1 "GND" H 14100 8000 50  0000 C CNN
F 2 "" H 14100 8150 50  0000 C CNN
F 3 "" H 14100 8150 50  0000 C CNN
	1    14100 8150
	-1   0    0    1   
$EndComp
Text Label 14100 8250 2    60   ~ 0
VCC
Text Label 14100 8350 2    60   ~ 0
TMS/SWDIO
Text Label 14100 8450 2    60   ~ 0
TCK/SWCLK
Text Label 14100 8550 2    60   ~ 0
TDI
Text Label 14100 8650 2    60   ~ 0
TDO/SWO
Text Label 14100 8750 2    60   ~ 0
TRST
Text Label 14100 8850 2    60   ~ 0
RESET
Text Notes 14500 7900 0    60   ~ 0
JTAG
NoConn ~ 13550 4000
Text HLabel 2900 5200 0    60   Input ~ 0
PWM_VSS
NoConn ~ 13550 3900
$Comp
L TEST_2P W1
U 1 1 58BBCD9C
P 2800 2800
F 0 "W1" H 2800 2860 50  0000 C CNN
F 1 "TEST_2P" H 2800 2730 50  0000 C CNN
F 2 "Pin_Headers:Pin_Header_Straight_1x02" H 2800 2800 50  0001 C CNN
F 3 "" H 2800 2800 50  0000 C CNN
	1    2800 2800
	-1   0    0    1   
$EndComp
Text HLabel 13800 6700 2    60   Input ~ 0
SPI2_MOSI
Text HLabel 2900 6400 0    60   Input ~ 0
SPI3_MOSI
Text HLabel 14100 3950 2    60   Input ~ 0
VOUT
Text Label 14400 3500 0    60   ~ 0
COMP_INM
Text Label 13950 4400 0    60   ~ 0
COMP_INM
$Comp
L D_Small D3
U 1 1 58BDA4FB
P 14050 3500
F 0 "D3" H 14000 3580 50  0000 L CNN
F 1 "1N4148" H 13900 3420 50  0000 L CNN
F 2 "Diodes_SMD:SOD-523" V 14050 3500 50  0001 C CNN
F 3 "" V 14050 3500 50  0000 C CNN
	1    14050 3500
	1    0    0    -1  
$EndComp
Text HLabel 14100 3750 2    60   Input ~ 0
VSS
$Comp
L CONN_01X02 P3
U 1 1 58BDC45C
P 14950 4150
F 0 "P3" H 14950 4300 50  0000 C CNN
F 1 "VIDEO" V 15050 4150 50  0000 C CNN
F 2 "Pin_Headers:Pin_Header_Straight_1x02" H 14950 4150 50  0001 C CNN
F 3 "" H 14950 4150 50  0000 C CNN
	1    14950 4150
	1    0    0    -1  
$EndComp
Wire Wire Line
	8050 2900 8700 2900
Wire Wire Line
	8150 7100 8150 7200
Wire Wire Line
	8150 7200 8550 7200
Wire Wire Line
	8250 7200 8250 7100
Wire Wire Line
	8350 7100 8350 7300
Connection ~ 8250 7200
Wire Wire Line
	8450 7200 8450 7100
Connection ~ 8350 7200
Wire Wire Line
	8550 7200 8550 7100
Connection ~ 8450 7200
Connection ~ 8350 2900
Wire Wire Line
	8150 3100 8150 3000
Wire Wire Line
	8150 3000 8550 3000
Wire Wire Line
	8250 3000 8250 3100
Wire Wire Line
	8350 2900 8350 3100
Connection ~ 8250 3000
Wire Wire Line
	8450 3000 8450 3100
Connection ~ 8350 3000
Wire Wire Line
	8550 3000 8550 3100
Connection ~ 8450 3000
Wire Wire Line
	2950 3900 3150 3900
Wire Wire Line
	2500 2950 2500 3750
Connection ~ 2500 3700
Connection ~ 2500 3500
Wire Wire Line
	3100 2950 3100 3500
Connection ~ 3100 3500
Wire Wire Line
	2500 3500 2700 3500
Wire Wire Line
	2900 3500 3150 3500
Wire Wire Line
	2950 3900 2950 4000
Wire Wire Line
	2950 4000 2900 4000
Wire Wire Line
	2500 3700 2650 3700
Wire Wire Line
	2950 3700 3150 3700
Connection ~ 3100 2950
Wire Wire Line
	2400 4650 3100 4650
Wire Wire Line
	3100 4850 3100 4800
Wire Wire Line
	3100 4800 3150 4800
Connection ~ 2700 4850
Wire Wire Line
	3100 4650 3100 4700
Wire Wire Line
	3100 4700 3150 4700
Connection ~ 2700 4650
Wire Wire Line
	1950 4650 2200 4650
Wire Wire Line
	1950 4850 2200 4850
Wire Wire Line
	2400 4850 2800 4850
Wire Wire Line
	3000 4850 3100 4850
Wire Wire Line
	13550 4800 13750 4800
Wire Wire Line
	13550 4900 13750 4900
Wire Wire Line
	13550 5000 13750 5000
Wire Wire Line
	13550 5500 13750 5500
Wire Wire Line
	13550 5600 13750 5600
Wire Wire Line
	14100 8150 14450 8150
Wire Wire Line
	14100 8250 14450 8250
Wire Wire Line
	14100 8350 14450 8350
Wire Wire Line
	14100 8450 14450 8450
Wire Wire Line
	14100 8550 14450 8550
Wire Wire Line
	14100 8650 14450 8650
Wire Wire Line
	14100 8750 14450 8750
Wire Wire Line
	14100 8850 14450 8850
Wire Notes Line
	13450 7800 13450 8950
Wire Notes Line
	13450 8950 14850 8950
Wire Notes Line
	14850 8950 14850 7800
Wire Notes Line
	14850 7800 13450 7800
Wire Wire Line
	3150 5200 2900 5200
Wire Wire Line
	3000 2950 3250 2950
Wire Wire Line
	3000 2950 3000 2800
Wire Wire Line
	2500 2950 2600 2950
Wire Wire Line
	2600 2950 2600 2800
Wire Wire Line
	13550 4200 14750 4200
Wire Wire Line
	13550 6700 13800 6700
Wire Wire Line
	2900 6400 3150 6400
Wire Wire Line
	13550 4100 14750 4100
Wire Wire Line
	13550 3500 13950 3500
Wire Wire Line
	13800 4200 13800 4400
Wire Wire Line
	13800 4400 13950 4400
Connection ~ 13800 4200
Wire Wire Line
	14400 3500 14150 3500
Wire Wire Line
	13750 3750 14100 3750
Wire Wire Line
	13750 3750 13750 3600
Wire Wire Line
	13750 3600 13550 3600
Wire Wire Line
	13950 4100 13950 3950
Connection ~ 13950 4100
Wire Wire Line
	13950 3950 14100 3950
$EndSCHEMATC
