EESchema Schematic File Version 2
LIBS:power
LIBS:device
LIBS:transistors
LIBS:conn
LIBS:linear
LIBS:regul
LIBS:74xx
LIBS:cmos4000
LIBS:adc-dac
LIBS:memory
LIBS:xilinx
LIBS:microcontrollers
LIBS:dsp
LIBS:microchip
LIBS:analog_switches
LIBS:motorola
LIBS:texas
LIBS:intel
LIBS:audio
LIBS:interface
LIBS:digital-audio
LIBS:philips
LIBS:display
LIBS:cypress
LIBS:siliconi
LIBS:opto
LIBS:atmel
LIBS:contrib
LIBS:valves
LIBS:stm32
LIBS:f3osd
LIBS:F3OSD-cache
EELAYER 25 0
EELAYER END
$Descr A4 11693 8268
encoding utf-8
Sheet 1 4
Title "F3OSD"
Date ""
Rev "1"
Comp "Mateusz Kaduk, Vladimir Zidar"
Comment1 "LibrePilot"
Comment2 "CERN OHL 1.2 "
Comment3 ""
Comment4 ""
$EndDescr
$Sheet
S 1900 1150 1500 1400
U 589CA221
F0 "Power" 60
F1 "Power.sch" 60
F2 "VCC-3.3" I R 3400 1300 60 
F3 "VCC_UN" I L 1900 1300 60 
F4 "PWM_VSS" I R 3400 1450 60 
F5 "VSS" I R 3400 2400 60 
$EndSheet
$Sheet
S 4400 1150 1550 1400
U 589CA224
F0 "Controller" 60
F1 "Controller.sch" 60
F2 "VCC-3.3" I L 4400 1300 60 
F3 "PWM_VSS" I L 4400 1450 60 
F4 "SPI2_MOSI" I R 5950 1550 60 
F5 "SPI3_MOSI" I R 5950 1450 60 
F6 "VOUT" I R 5950 1950 60 
F7 "VSS" I R 5950 2400 60 
$EndSheet
$Comp
L GND #PWR01
U 1 1 589E104D
P 1550 1450
F 0 "#PWR01" H 1550 1200 50  0001 C CNN
F 1 "GND" H 1550 1300 50  0000 C CNN
F 2 "" H 1550 1450 50  0000 C CNN
F 3 "" H 1550 1450 50  0000 C CNN
	1    1550 1450
	1    0    0    -1  
$EndComp
$Comp
L PWR_FLAG #FLG02
U 1 1 589E1079
P 1100 1200
F 0 "#FLG02" H 1100 1295 50  0001 C CNN
F 1 "PWR_FLAG" H 1100 1380 50  0000 C CNN
F 2 "" H 1100 1200 50  0000 C CNN
F 3 "" H 1100 1200 50  0000 C CNN
	1    1100 1200
	1    0    0    -1  
$EndComp
$Comp
L PWR_FLAG #FLG03
U 1 1 589E10FC
P 1100 1500
F 0 "#FLG03" H 1100 1595 50  0001 C CNN
F 1 "PWR_FLAG" H 1100 1680 50  0000 C CNN
F 2 "" H 1100 1500 50  0000 C CNN
F 3 "" H 1100 1500 50  0000 C CNN
	1    1100 1500
	-1   0    0    1   
$EndComp
Wire Wire Line
	3400 1300 4400 1300
Wire Wire Line
	900  1300 1900 1300
Wire Wire Line
	1100 1300 1100 1200
Wire Wire Line
	900  1400 1550 1400
Wire Wire Line
	1100 1400 1100 1500
Wire Wire Line
	1550 1400 1550 1450
Connection ~ 1100 1400
Connection ~ 1100 1300
Wire Wire Line
	3400 1450 4400 1450
$Sheet
S 6500 1150 1550 1400
U 58BB2F97
F0 "Video" 60
F1 "Video.sch" 60
F2 "VSS" I L 6500 2400 60 
F3 "VDD" I L 6500 1250 60 
F4 "VOUT" I L 6500 1950 60 
F5 "SPI3" I L 6500 1450 60 
F6 "SPI2" I L 6500 1550 60 
$EndSheet
$Comp
L CONN_01X02 P1
U 1 1 589EA35A
P 700 1350
F 0 "P1" H 700 1500 50  0000 C CNN
F 1 "POWER" V 800 1350 50  0000 C CNN
F 2 "Pin_Headers:Pin_Header_Straight_1x02" H 700 1350 50  0001 C CNN
F 3 "" H 700 1350 50  0000 C CNN
	1    700  1350
	-1   0    0    1   
$EndComp
Wire Wire Line
	4200 1300 4200 1000
Wire Wire Line
	4200 1000 6300 1000
Wire Wire Line
	6300 1000 6300 1250
Wire Wire Line
	6300 1250 6500 1250
Connection ~ 4200 1300
Wire Wire Line
	5950 2400 6500 2400
Wire Wire Line
	6250 2400 6250 2750
Wire Wire Line
	6250 2750 3850 2750
Wire Wire Line
	3850 2750 3850 2400
Wire Wire Line
	3850 2400 3400 2400
Wire Wire Line
	5950 1450 6500 1450
Wire Wire Line
	5950 1550 6500 1550
Wire Wire Line
	6500 1950 5950 1950
Connection ~ 6250 2400
$EndSCHEMATC
