EESchema Schematic File Version 2
LIBS:power
LIBS:device
LIBS:transistors
LIBS:conn
LIBS:linear
LIBS:regul
LIBS:74xx
LIBS:cmos4000
LIBS:adc-dac
LIBS:memory
LIBS:xilinx
LIBS:microcontrollers
LIBS:dsp
LIBS:microchip
LIBS:analog_switches
LIBS:motorola
LIBS:texas
LIBS:intel
LIBS:audio
LIBS:interface
LIBS:digital-audio
LIBS:philips
LIBS:display
LIBS:cypress
LIBS:siliconi
LIBS:opto
LIBS:atmel
LIBS:contrib
LIBS:valves
LIBS:stm32
LIBS:f3osd
LIBS:F3OSD-cache
EELAYER 25 0
EELAYER END
$Descr A4 11693 8268
encoding utf-8
Sheet 2 4
Title ""
Date ""
Rev ""
Comp ""
Comment1 ""
Comment2 ""
Comment3 ""
Comment4 ""
$EndDescr
$Comp
L REG113NA-3.3 U1
U 1 1 589CA7E4
P 3250 1500
F 0 "U1" H 3250 1897 60  0000 C CNN
F 1 "REG113NA-3.3" H 3250 1791 60  0000 C CNN
F 2 "TO_SOT_Packages_SMD:SOT-23-5" H 550 -950 60  0001 C CNN
F 3 "" H 550 -950 60  0001 C CNN
	1    3250 1500
	1    0    0    -1  
$EndComp
$Comp
L GND #PWR04
U 1 1 589CAC4C
P 3250 1800
F 0 "#PWR04" H 350 -300 50  0001 C CNN
F 1 "GND" H 3255 1627 50  0000 C CNN
F 2 "" H 350 -50 50  0001 C CNN
F 3 "" H 350 -50 50  0001 C CNN
	1    3250 1800
	1    0    0    -1  
$EndComp
Text HLabel 4750 1400 2    60   Input ~ 0
VCC-3.3
Text HLabel 1300 1350 0    60   Input ~ 0
VCC_UN
$Comp
L Ferrite_Bead_Small L1
U 1 1 589CCAC4
P 1500 1350
F 0 "L1" H 1575 1400 50  0000 L CNN
F 1 "300mA" H 1575 1300 50  0000 L CNN
F 2 "Resistors_SMD:R_0603" V 1430 1350 50  0001 C CNN
F 3 "" H 1500 1350 50  0000 C CNN
	1    1500 1350
	0    1    1    0   
$EndComp
$Comp
L C_Small C1
U 1 1 589CCB0E
P 1650 1500
F 0 "C1" H 1660 1570 50  0000 L CNN
F 1 "22uF" H 1660 1420 50  0000 L CNN
F 2 "Capacitors_SMD:C_0603" H 1650 1500 50  0001 C CNN
F 3 "" H 1650 1500 50  0000 C CNN
	1    1650 1500
	1    0    0    -1  
$EndComp
$Comp
L GND #PWR05
U 1 1 589CCB89
P 1650 1750
F 0 "#PWR05" H -1250 -350 50  0001 C CNN
F 1 "GND" H 1655 1577 50  0000 C CNN
F 2 "" H -1250 -100 50  0001 C CNN
F 3 "" H -1250 -100 50  0001 C CNN
	1    1650 1750
	1    0    0    -1  
$EndComp
$Comp
L C_Small C3
U 1 1 589CCBA6
P 1900 1500
F 0 "C3" H 1910 1570 50  0000 L CNN
F 1 "10nF" H 1910 1420 50  0000 L CNN
F 2 "Capacitors_SMD:C_0603" H 1900 1500 50  0001 C CNN
F 3 "" H 1900 1500 50  0000 C CNN
	1    1900 1500
	1    0    0    -1  
$EndComp
$Comp
L C_Small C4
U 1 1 589CCBC8
P 2150 1500
F 0 "C4" H 2160 1570 50  0000 L CNN
F 1 "10nF" H 2160 1420 50  0000 L CNN
F 2 "Capacitors_SMD:C_0603" H 2150 1500 50  0001 C CNN
F 3 "" H 2150 1500 50  0000 C CNN
	1    2150 1500
	1    0    0    -1  
$EndComp
$Comp
L C_Small C6
U 1 1 589CCCEC
P 4050 1650
F 0 "C6" H 4060 1720 50  0000 L CNN
F 1 "10nF" H 4060 1570 50  0000 L CNN
F 2 "Capacitors_SMD:C_0603" H 4050 1650 50  0001 C CNN
F 3 "" H 4050 1650 50  0000 C CNN
	1    4050 1650
	1    0    0    -1  
$EndComp
$Comp
L C_Small C7
U 1 1 589CCD4E
P 4300 1650
F 0 "C7" H 4310 1720 50  0000 L CNN
F 1 "10nF" H 4310 1570 50  0000 L CNN
F 2 "Capacitors_SMD:C_0603" H 4300 1650 50  0001 C CNN
F 3 "" H 4300 1650 50  0000 C CNN
	1    4300 1650
	1    0    0    -1  
$EndComp
$Comp
L C_Small C8
U 1 1 589CCD79
P 4550 1650
F 0 "C8" H 4560 1720 50  0000 L CNN
F 1 "10nF" H 4560 1570 50  0000 L CNN
F 2 "Capacitors_SMD:C_0603" H 4550 1650 50  0001 C CNN
F 3 "" H 4550 1650 50  0000 C CNN
	1    4550 1650
	1    0    0    -1  
$EndComp
Text Notes 4400 1000 0    60   ~ 0
Voltage regulator
$Comp
L C_Small C9
U 1 1 589E1B57
P 6000 1400
F 0 "C9" H 6010 1470 50  0000 L CNN
F 1 "4.7uF" H 6010 1320 50  0000 L CNN
F 2 "Capacitors_SMD:C_0603" H 6000 1400 50  0001 C CNN
F 3 "" H 6000 1400 50  0000 C CNN
	1    6000 1400
	1    0    0    -1  
$EndComp
$Comp
L C_Small C10
U 1 1 589E1BEC
P 6350 1400
F 0 "C10" H 6360 1470 50  0000 L CNN
F 1 "10nF" H 6360 1320 50  0000 L CNN
F 2 "Capacitors_SMD:C_0603" H 6350 1400 50  0001 C CNN
F 3 "" H 6350 1400 50  0000 C CNN
	1    6350 1400
	1    0    0    -1  
$EndComp
$Comp
L C_Small C11
U 1 1 589E1C7C
P 6650 1400
F 0 "C11" H 6660 1470 50  0000 L CNN
F 1 "10nF" H 6660 1320 50  0000 L CNN
F 2 "Capacitors_SMD:C_0603_HandSoldering" H 6650 1400 50  0001 C CNN
F 3 "" H 6650 1400 50  0000 C CNN
	1    6650 1400
	1    0    0    -1  
$EndComp
$Comp
L C_Small C12
U 1 1 589E1CB5
P 6950 1400
F 0 "C12" H 6960 1470 50  0000 L CNN
F 1 "10nF" H 6960 1320 50  0000 L CNN
F 2 "Capacitors_SMD:C_0603_HandSoldering" H 6950 1400 50  0001 C CNN
F 3 "" H 6950 1400 50  0000 C CNN
	1    6950 1400
	1    0    0    -1  
$EndComp
$Comp
L C_Small C13
U 1 1 589E1CFD
P 7250 1400
F 0 "C13" H 7260 1470 50  0000 L CNN
F 1 "10nF" H 7260 1320 50  0000 L CNN
F 2 "Capacitors_SMD:C_0603_HandSoldering" H 7250 1400 50  0001 C CNN
F 3 "" H 7250 1400 50  0000 C CNN
	1    7250 1400
	1    0    0    -1  
$EndComp
$Comp
L C_Small C14
U 1 1 589E1E4C
P 7550 1400
F 0 "C14" H 7560 1470 50  0000 L CNN
F 1 "10nF" H 7560 1320 50  0000 L CNN
F 2 "Capacitors_SMD:C_0603_HandSoldering" H 7550 1400 50  0001 C CNN
F 3 "" H 7550 1400 50  0000 C CNN
	1    7550 1400
	1    0    0    -1  
$EndComp
$Comp
L GND #PWR06
U 1 1 589E215F
P 6800 1750
F 0 "#PWR06" H 6800 1500 50  0001 C CNN
F 1 "GND" H 6800 1600 50  0000 C CNN
F 2 "" H 6800 1750 50  0000 C CNN
F 3 "" H 6800 1750 50  0000 C CNN
	1    6800 1750
	1    0    0    -1  
$EndComp
Text Notes 6750 1000 0    60   ~ 0
Decoupling capacitors
$Comp
L D_Small D2
U 1 1 58B15FE0
P 2450 2600
F 0 "D2" H 2400 2680 50  0000 L CNN
F 1 "1N4004" H 2300 2520 50  0000 L CNN
F 2 "Diodes_SMD:SOD-523" V 2450 2600 50  0001 C CNN
F 3 "" V 2450 2600 50  0000 C CNN
	1    2450 2600
	1    0    0    -1  
$EndComp
$Comp
L D_Small D1
U 1 1 58B160C1
P 2100 2850
F 0 "D1" H 2050 2930 50  0000 L CNN
F 1 "1N4004" H 1950 2770 50  0000 L CNN
F 2 "Diodes_SMD:SOD-523" V 2100 2850 50  0001 C CNN
F 3 "" V 2100 2850 50  0000 C CNN
	1    2100 2850
	0    -1   -1   0   
$EndComp
$Comp
L C_Small C5
U 1 1 58B16F39
P 2800 2850
F 0 "C5" H 2810 2920 50  0000 L CNN
F 1 "100uF" H 2810 2770 50  0000 L CNN
F 2 "Capacitors_SMD:C_0603" H 2800 2850 50  0001 C CNN
F 3 "" H 2800 2850 50  0000 C CNN
	1    2800 2850
	1    0    0    -1  
$EndComp
$Comp
L C_Small C2
U 1 1 58B17010
P 1800 2600
F 0 "C2" H 1810 2670 50  0000 L CNN
F 1 "10uF" H 1810 2520 50  0000 L CNN
F 2 "Capacitors_SMD:C_0603" H 1800 2600 50  0001 C CNN
F 3 "" H 1800 2600 50  0000 C CNN
	1    1800 2600
	0    -1   -1   0   
$EndComp
$Comp
L GND #PWR07
U 1 1 58B170FC
P 2450 3050
F 0 "#PWR07" H -450 950 50  0001 C CNN
F 1 "GND" H 2455 2877 50  0000 C CNN
F 2 "" H -450 1200 50  0001 C CNN
F 3 "" H -450 1200 50  0001 C CNN
	1    2450 3050
	1    0    0    -1  
$EndComp
Wire Wire Line
	1300 1350 1400 1350
Wire Wire Line
	1600 1350 2650 1350
Wire Wire Line
	1650 1350 1650 1400
Connection ~ 1650 1350
Wire Wire Line
	1650 1600 1650 1750
Wire Wire Line
	1900 1350 1900 1400
Connection ~ 1900 1350
Wire Wire Line
	2150 1350 2150 1400
Connection ~ 2150 1350
Wire Wire Line
	2450 1350 2450 1450
Wire Wire Line
	2450 1450 2650 1450
Connection ~ 2450 1350
Wire Wire Line
	1900 1600 1900 1700
Wire Wire Line
	1900 1700 3400 1700
Wire Wire Line
	3250 1700 3250 1800
Wire Wire Line
	2150 1600 2150 1700
Connection ~ 2150 1700
Wire Wire Line
	2450 1700 2450 1550
Wire Wire Line
	2450 1550 2650 1550
Connection ~ 2450 1700
Wire Wire Line
	3850 1500 4050 1500
Wire Wire Line
	4050 1500 4050 1550
Wire Wire Line
	4050 1750 4050 1800
Wire Wire Line
	3400 1800 4550 1800
Wire Wire Line
	3400 1700 3400 1800
Connection ~ 3250 1700
Wire Wire Line
	4300 1800 4300 1750
Connection ~ 4050 1800
Wire Wire Line
	4550 1800 4550 1750
Connection ~ 4300 1800
Wire Wire Line
	4550 1550 4550 1400
Wire Wire Line
	3850 1400 4750 1400
Connection ~ 4550 1400
Wire Wire Line
	4300 1550 4300 1400
Connection ~ 4300 1400
Wire Notes Line
	850  900  850  2050
Wire Notes Line
	850  2050 5250 2050
Wire Notes Line
	5250 2050 5250 900 
Wire Notes Line
	5250 900  850  900 
Wire Wire Line
	6000 1300 6000 1200
Wire Wire Line
	4650 1200 7550 1200
Wire Wire Line
	6350 1200 6350 1300
Wire Wire Line
	6650 1200 6650 1300
Connection ~ 6350 1200
Wire Wire Line
	6950 1200 6950 1300
Connection ~ 6650 1200
Wire Wire Line
	7250 1200 7250 1300
Connection ~ 6950 1200
Wire Wire Line
	7550 1200 7550 1300
Connection ~ 7250 1200
Wire Wire Line
	6000 1500 6000 1600
Wire Wire Line
	6000 1600 7550 1600
Wire Wire Line
	6350 1600 6350 1500
Wire Wire Line
	6650 1600 6650 1500
Connection ~ 6350 1600
Wire Wire Line
	6950 1600 6950 1500
Connection ~ 6650 1600
Wire Wire Line
	7250 1600 7250 1500
Connection ~ 6950 1600
Wire Wire Line
	7550 1600 7550 1500
Connection ~ 7250 1600
Wire Wire Line
	6800 1600 6800 1750
Connection ~ 6800 1600
Wire Wire Line
	4650 1200 4650 1400
Connection ~ 4650 1400
Connection ~ 6000 1200
Wire Notes Line
	5800 900  7800 900 
Wire Notes Line
	7800 900  7800 2050
Wire Notes Line
	7800 2050 5800 2050
Wire Notes Line
	5800 2050 5800 900 
Text HLabel 1400 2600 0    60   Input ~ 0
PWM_VSS
Wire Wire Line
	1400 2600 1700 2600
Wire Wire Line
	1900 2600 2350 2600
Wire Wire Line
	2100 2600 2100 2750
Connection ~ 2100 2600
Wire Wire Line
	2550 2600 3100 2600
Wire Wire Line
	2800 2600 2800 2750
Text HLabel 3100 2600 2    60   Input ~ 0
VSS
Connection ~ 2800 2600
Wire Wire Line
	2100 2950 2100 3000
Wire Wire Line
	2100 3000 2800 3000
Wire Wire Line
	2450 3000 2450 3050
Wire Wire Line
	2800 3000 2800 2950
Connection ~ 2450 3000
Wire Notes Line
	850  2400 850  3300
Wire Notes Line
	850  3300 3700 3300
Wire Notes Line
	3700 3300 3700 2300
Wire Notes Line
	3700 2300 850  2300
Wire Notes Line
	850  2300 850  2500
Text Notes 2550 2400 0    60   ~ 0
Negative voltage source
$EndSCHEMATC
